Peer Assessment I
…
df <- ames_train %>% group_by(Neighborhood) %>% summarise(stddev = sd(price), mean=mean(price), median=median(price))
df %>% arrange(desc(stddev))

## # A tibble: 27 x 4
##    Neighborhood  stddev    mean  median
##    <fct>          <dbl>   <dbl>   <dbl>
##  1 StoneBr      123459. 339316. 340692.
##  2 NridgHt      105089. 333647. 336860 
##  3 Timber        84030. 265192. 232500 
##  4 Veenker       72545. 233650  205750 
##  5 Crawfor       71268. 204197. 205000 
##  6 GrnHill       70711. 280000  280000 
##  7 Somerst       65199. 234596. 221650 
##  8 Edwards       54852. 136322. 127250 
##  9 CollgCr       52786. 196951. 195800 
## 10 SawyerW       48354. 183101  182500 
## #  with 17 more rows

df %>% arrange(desc(median))

## # A tibble: 27 x 4
##    Neighborhood  stddev    mean  median
##    <fct>          <dbl>   <dbl>   <dbl>
##  1 StoneBr      123459. 339316. 340692.
##  2 NridgHt      105089. 333647. 336860 
##  3 NoRidge       35889. 295845. 290000 
##  4 GrnHill       70711. 280000  280000 
##  5 Timber        84030. 265192. 232500 
##  6 Somerst       65199. 234596. 221650 
##  7 Greens        29063. 198562. 212625 
##  8 Veenker       72545. 233650  205750 
##  9 Crawfor       71268. 204197. 205000 
## 10 CollgCr       52786. 196951. 195800 
## #  with 17 more rows

df %>% arrange(median)

## # A tibble: 27 x 4
##    Neighborhood stddev    mean median
##    <fct>         <dbl>   <dbl>  <dbl>
##  1 MeadowV      18940.  92947.  85750
##  2 BrDale       13338.  98930   98750
##  3 IDOTRR       31530.  97621.  99500
##  4 OldTown      36430. 120226. 120000
##  5 Blueste      10381. 125800  123900
##  6 BrkSide      37310. 122473. 124000
##  7 Edwards      54852. 136322. 127250
##  8 SWISU        27376. 130620. 134000
##  9 Sawyer       21216. 139313. 136000
## 10 NAmes        27268. 141356. 139900
## #  with 17 more rows
…
